[
  {
    "domain": "localhost:9000",
    "path": "/",
    "name": "yourCookieName",
    "value": "yourCookieValue",
    "expirationDate": 1798790400,
    "hostOnly": false,
    "httpOnly": false,
    "secure": false,
    "session": false,
    "sameSite": "no_restriction"
  }
]
