{
    "id": "backstop_default",
    "viewports": [
        {
            "label": "desktop",
            "width": 1920,
            "height": 1080
        }
    ],
    "scenarios": [
        {
            "label": "Self-host Keypro React App",
            "url": "http://localhost:9000",
            "readySelector": "#app",
            "delay": 1000,
            "hideSelectors": [],
            "removeSelectors": [],
            "hoverSelector": "",
            "clickSelectors": [
                ".keypro--top-bar__quick-address-search-window-show-btn"
            ],
            "postInteractionWait": 0,
            "selectors": [
                "body"
            ],
            "selectorExpansion": true,
            "expect": 0,
            "misMatchThreshold": 0.01,
            "requireSameDimensions": true,
            "onBeforeScript": "puppet/onBefore.js",
            "onReadyScript": "puppet/onReady.js"
        }
    ],
    "paths": {
        "bitmaps_reference": "backstop_data/bitmaps_reference",
        "bitmaps_test": "backstop_data/bitmaps_test",
        "engine_scripts": "backstop_data/engine_scripts",
        "html_report": "backstop_data/html_report",
        "ci_report": "backstop_data/ci_report"
    },
    "report": [
        "browser"
    ],
    "resembleOutputOptions": {
        "ignoreAntialiasing": true
    },
    "engineOptions": {
        "ignoreHTTPSErrors": false,
        "args": [
            "--no-sandbox",
            "--disable-setuid-sandbox"
        ]
    },
    "engine": "puppeteer",
    "asyncCaptureLimit": 5,
    "asyncCompareLimit": 50,
    "debug": true,
    "debugWindow": false
}
